astroid==2.4.2
autopep8==1.5.4
certifi==2020.6.20
cycler==0.10.0
isort==5.5.2
json-environ==0.1.1
kiwisolver==1.2.0
lazy-object-proxy==1.4.3
matplotlib==3.3.2
mccabe==0.6.1
numpy==1.19.2
opencv-python==4.4.0.42
Pillow==8.0.0
progress==1.5
prompt-toolkit==1.0.14
pycodestyle==2.6.0
Pygments==2.7.1
PyInquirer==1.0.3
pylint==2.6.0
pyparsing==2.4.7
python-dateutil==2.8.1
python-dotenv==0.14.0
regex==2020.10.15
six==1.15.0
toml==0.10.1
typed-ast==1.4.1
wcwidth==0.2.5
wrapt==1.12.1
